R para Ciência de Dados
…
- Para isso, existe o curly-curly `{{ }}`

- Basta colocá-lo ao redor do argumento que você quer passar

```r
selecionar <- function(da, coluna) {
  da %>% 
    select({{coluna}})
}

da_sinesp_muni %>% 
  selecionar(regiao)
```

    # A tibble: 124,246 x 1
       regiao
       <chr> 
     1 NORTE 
     2 NORTE 
     3 NORTE 
     4 NORTE 
     5 NORTE 
     6 NORTE 
     7 NORTE 
     8 NORTE 
     9 NORTE 
    10 NORTE 
    # … with 124,236 more rows
…
